<?xml version="1.0" encoding="utf-8"?>
<!-- Generator: Adobe Illustrator 17.0.0, SVG Export Plug-In . SVG Version: 6.00 Build 0)  -->
<!DOCTYPE svg PUBLIC "-//W3C//DTD SVG 1.1//EN" "http://www.w3.org/Graphics/SVG/1.1/DTD/svg11.dtd">
<svg version="1.1" id="Layer_1" xmlns="http://www.w3.org/2000/svg" xmlns:xlink="http://www.w3.org/1999/xlink" x="0px" y="0px"
	 width="300px" height="300px" viewBox="0 0 300 300" enable-background="new 0 0 300 300" xml:space="preserve">
<g>
	<path fill="#FFFFFF" d="M137.169,20.062c0,0.877-0.366,1.851-1.096,2.923c-0.939,1.072-2.141,1.606-3.603,1.606
		c-0.837,0-1.67-0.241-2.506-0.731c-8.355-5.16-17.491-7.744-27.409-7.744c-8.459,0-16.109,1.853-22.946,5.553
		c-6.84,3.702-12.217,8.889-16.134,15.559c-3.915,6.673-5.873,14.244-5.873,22.718c0,8.671,1.983,16.339,5.952,23.011
		c3.967,6.672,9.371,11.833,16.211,15.486c6.839,3.652,14.436,5.478,22.791,5.478c9.919,0,19.002-2.53,27.252-7.597
		c0.835-0.486,1.724-0.729,2.663-0.729c1.462,0,2.664,0.584,3.603,1.753c0.73,0.781,1.096,1.705,1.096,2.775
		c0,1.56-0.732,2.728-2.192,3.507c-4.072,2.533-9.085,4.652-15.037,6.355c-5.952,1.703-11.748,2.557-17.385,2.557
		c-9.922,0-19.084-2.214-27.49-6.648c-8.405-4.431-15.09-10.64-20.048-18.627c-4.961-7.985-7.44-17.093-7.44-27.321
		c0-9.836,2.452-18.773,7.361-26.81c4.908-8.035,11.537-14.317,19.893-18.846c8.352-4.528,17.593-6.793,27.723-6.793
		c5.846,0,11.562,0.781,17.15,2.337c5.586,1.56,10.624,3.752,15.115,6.575C136.387,17.287,137.169,18.505,137.169,20.062z"/>
	<path fill="#FFFFFF" d="M248.064,86.974c-4.492,7.988-10.706,14.245-18.64,18.773c-7.936,4.529-16.969,6.795-27.097,6.795
		c-10.129,0-19.163-2.265-27.097-6.795c-7.936-4.528-14.15-10.785-18.638-18.773c-4.492-7.985-6.735-16.995-6.735-27.028
		c0-10.129,2.243-19.186,6.735-27.174c4.488-7.985,10.702-14.219,18.638-18.7c7.934-4.479,16.968-6.721,27.097-6.721
		c10.128,0,19.161,2.242,27.097,6.721c7.934,4.481,14.148,10.715,18.64,18.7c4.488,7.988,6.735,17.045,6.735,27.174
		C254.799,69.979,252.552,78.989,248.064,86.974z M239.371,37.228c-3.603-6.67-8.616-11.857-15.037-15.559
		c-6.423-3.7-13.759-5.553-22.007-5.553c-8.25,0-15.585,1.853-22.006,5.553c-6.423,3.702-11.434,8.889-15.037,15.559
		c-3.603,6.673-5.404,14.244-5.404,22.718s1.801,16.048,5.404,22.718c3.603,6.673,8.614,11.858,15.037,15.559
		c6.421,3.703,13.756,5.553,22.006,5.553c8.248,0,15.585-1.849,22.007-5.553c6.421-3.7,11.434-8.886,15.037-15.559
		c3.601-6.67,5.404-14.244,5.404-22.718S242.973,43.901,239.371,37.228z"/>
	<path fill="#FFFFFF" d="M166.474,212.752c0-0.877,0.366-1.851,1.096-2.923c0.939-1.072,2.141-1.606,3.603-1.606
		c0.837,0,1.67,0.242,2.506,0.731c8.355,5.16,17.491,7.744,27.409,7.744c8.459,0,16.109-1.853,22.946-5.553
		c6.84-3.702,12.217-8.889,16.134-15.559c3.915-6.673,5.873-14.244,5.873-22.718c0-8.671-1.983-16.339-5.952-23.011
		c-3.967-6.672-9.371-11.833-16.211-15.486c-6.839-3.652-14.436-5.478-22.791-5.478c-9.919,0-19.002,2.53-27.252,7.597
		c-0.835,0.486-1.724,0.729-2.663,0.729c-1.462,0-2.664-0.584-3.603-1.753c-0.73-0.781-1.096-1.705-1.096-2.775
		c0-1.56,0.732-2.728,2.192-3.507c4.072-2.533,9.085-4.652,15.037-6.355s11.748-2.557,17.385-2.557
		c9.922,0,19.084,2.214,27.49,6.648c8.405,4.431,15.09,10.64,20.048,18.627c4.961,7.985,7.44,17.093,7.44,27.321
		c0,9.836-2.452,18.773-7.361,26.809c-4.908,8.035-11.537,14.317-19.893,18.846c-8.352,4.528-17.593,6.793-27.723,6.793
		c-5.846,0-11.562-0.781-17.15-2.337c-5.586-1.56-10.624-3.752-15.115-6.575C167.256,215.527,166.474,214.308,166.474,212.752z"/>
	<path fill="#FFFFFF" d="M55.579,145.839c4.492-7.988,10.706-14.245,18.64-18.773c7.936-4.529,16.969-6.795,27.097-6.795
		c10.129,0,19.163,2.265,27.097,6.795c7.936,4.528,14.15,10.785,18.638,18.773c4.492,7.985,6.735,16.995,6.735,27.028
		c0,10.129-2.243,19.186-6.735,27.174c-4.488,7.985-10.702,14.219-18.638,18.7c-7.934,4.479-16.968,6.721-27.097,6.721
		c-10.128,0-19.161-2.242-27.097-6.721c-7.934-4.481-14.148-10.715-18.64-18.7c-4.488-7.988-6.735-17.045-6.735-27.174
		C48.844,162.835,51.09,153.824,55.579,145.839z M64.271,195.585c3.603,6.67,8.616,11.857,15.037,15.559
		c6.423,3.7,13.759,5.553,22.007,5.553c8.25,0,15.585-1.853,22.006-5.553c6.423-3.702,11.434-8.889,15.037-15.559
		c3.603-6.673,5.404-14.244,5.404-22.718c0-8.474-1.801-16.048-5.404-22.718c-3.603-6.673-8.614-11.858-15.037-15.559
		c-6.421-3.704-13.756-5.553-22.006-5.553c-8.248,0-15.585,1.849-22.007,5.553c-6.421,3.7-11.434,8.886-15.037,15.559
		c-3.601,6.67-5.404,14.244-5.404,22.718C58.868,181.341,60.67,188.912,64.271,195.585z"/>
	<g>
		<path fill="#FFFFFF" d="M97.778,289.102c0.451,0.398,0.679,0.919,0.679,1.564c0,0.646-0.227,1.18-0.679,1.601
			c-0.453,0.423-1.026,0.633-1.717,0.633H67.551c-0.692,0-1.265-0.211-1.717-0.633c-0.453-0.421-0.679-0.956-0.679-1.601v-47.671
			c0-0.645,0.24-1.179,0.719-1.601c0.479-0.421,1.091-0.633,1.837-0.633c0.692,0,1.277,0.212,1.757,0.633
			c0.479,0.423,0.719,0.956,0.719,1.601v45.511h25.873C96.751,288.506,97.325,288.705,97.778,289.102z"/>
		<path fill="#FFFFFF" d="M149.484,290.814c0,0.647-0.239,1.168-0.719,1.565c-0.479,0.398-1.038,0.596-1.677,0.596
			c-0.533,0-0.998-0.137-1.398-0.41c-0.399-0.272-0.706-0.633-0.918-1.08l-5.99-13.63h-25.954l-5.909,13.63
			c-0.427,0.995-1.145,1.49-2.155,1.49c-0.747,0-1.306-0.174-1.678-0.522c-0.373-0.346-0.586-0.819-0.639-1.415v-0.224
			c0-0.298,0.026-0.521,0.08-0.67l21.082-48.118c0.426-0.993,1.224-1.489,2.396-1.489c0.531,0,0.998,0.137,1.398,0.409
			c0.399,0.274,0.705,0.633,0.918,1.08l21.002,47.894C149.43,290.319,149.484,290.617,149.484,290.814z M114.666,273.459h22.2
			l-11.18-25.474L114.666,273.459z"/>
		<path fill="#FFFFFF" d="M196.998,269.661c2.023,2.235,3.034,5.14,3.034,8.715c0,4.867-1.61,8.504-4.831,10.912
			c-3.222,2.409-7.227,3.613-12.018,3.613h-21.482c-0.692,0-1.265-0.211-1.717-0.633c-0.453-0.421-0.679-0.956-0.679-1.601v-47.671
			c0-0.645,0.226-1.179,0.679-1.601c0.452-0.421,1.025-0.633,1.717-0.633h21.162c4.472,0,7.972,1.143,10.501,3.426
			c2.528,2.285,3.793,5.414,3.793,9.385c0,2.633-0.693,4.991-2.076,7.076c-1.386,2.086-3.355,3.601-5.909,4.544
			C192.366,265.937,194.974,267.426,196.998,269.661z M189.452,247.501c-1.731-1.564-4.14-2.347-7.227-2.347h-17.808v18.621h17.808
			c2.874-0.048,5.231-0.918,7.067-2.606c1.837-1.688,2.755-4.097,2.755-7.225C192.047,251.214,191.181,249.065,189.452,247.501z
			 M191.608,285.974c2.208-1.688,3.314-4.22,3.314-7.598c0-3.475-1.132-6.033-3.394-7.672c-2.264-1.639-5.178-2.458-8.745-2.458
			h-18.367v20.26h18.527C186.509,288.506,189.398,287.662,191.608,285.974z"/>
		<path fill="#FFFFFF" d="M216.202,291.857c-2.954-1.192-5.817-3.054-8.584-5.586c-0.639-0.496-0.958-1.092-0.958-1.788
			c0-0.596,0.252-1.141,0.758-1.639c0.506-0.496,1.078-0.744,1.717-0.744c0.64,0,1.225,0.249,1.757,0.744
			c4.153,4.271,9.343,6.406,15.572,6.406c3.833,0,7.014-0.844,9.543-2.532c2.528-1.687,3.793-3.898,3.793-6.629
			c0-2.134-0.627-3.911-1.877-5.326c-1.251-1.415-2.889-2.57-4.911-3.463c-2.023-0.894-4.606-1.812-7.746-2.756
			c-3.408-0.943-6.269-1.986-8.584-3.129c-2.316-1.142-4.193-2.668-5.63-4.58c-1.438-1.911-2.156-4.332-2.156-7.263
			c0-2.631,0.759-4.965,2.276-7.002c1.517-2.036,3.646-3.637,6.388-4.804c2.741-1.166,5.896-1.751,9.463-1.751
			c3.246,0,6.294,0.51,9.143,1.528c2.848,1.018,5.123,2.47,6.828,4.357c0.799,0.845,1.198,1.564,1.198,2.16
			c0,0.547-0.267,1.056-0.799,1.528c-0.532,0.472-1.118,0.707-1.757,0.707c-0.532,0-0.985-0.173-1.358-0.521
			c-1.438-1.589-3.354-2.88-5.749-3.873c-2.396-0.993-4.899-1.489-7.506-1.489c-3.887,0-7.055,0.807-9.503,2.42
			c-2.449,1.614-3.673,3.811-3.673,6.592c0,2.88,1.17,5.09,3.514,6.629c2.342,1.539,5.696,2.955,10.061,4.246
			c3.78,1.043,6.868,2.111,9.264,3.203c2.396,1.093,4.352,2.644,5.869,4.655c1.517,2.011,2.276,4.656,2.276,7.933
			c0,2.532-0.786,4.83-2.356,6.889c-1.571,2.061-3.753,3.687-6.548,4.879c-2.795,1.192-5.977,1.788-9.543,1.788
			C222.551,293.646,219.157,293.05,216.202,291.857z"/>
	</g>
</g>
</svg>
